{
    "compilerOptions": {
        "target": "es2020",
        "module": "commonJS",
        "jsx": "react",
        "allowSyntheticDefaultImports": true,
        "experimentalDecorators": true,
        "baseUrl": "./",
        "paths": {
            "~/*" : ["src/*"]
        }
    },
	"exclude": [ "node_modules", "build", "android", "electron" ]
}
